module my-api

go 1.21.1

require (
	dario.cat/mergo v1.0.0 // indirect
	github.com/andybalholm/brotli v1.0.5 // indirect
	github.com/bep/godartsass v1.2.0 // indirect
	github.com/bep/godartsass/v2 v2.0.0 // indirect
	github.com/bep/golibsass v1.1.1 // indirect
	github.com/cli/safeexec v1.0.1 // indirect
	github.com/cosmtrek/air v1.45.0 // indirect
	github.com/creack/pty v1.1.18 // indirect
	github.com/fatih/color v1.15.0 // indirect
	github.com/fsnotify/fsnotify v1.6.0 // indirect
	github.com/gofiber/fiber/v2 v2.49.2 // indirect
	github.com/gohugoio/hugo v0.119.0 // indirect
	github.com/google/uuid v1.3.1 // indirect
	github.com/joho/godotenv v1.5.1 // indirect
	github.com/klauspost/compress v1.16.7 // indirect
	github.com/mattn/go-colorable v0.1.13 // indirect
	github.com/mattn/go-isatty v0.0.19 // indirect
	github.com/mattn/go-runewidth v0.0.15 // indirect
	github.com/pelletier/go-toml v1.9.5 // indirect
	github.com/pelletier/go-toml/v2 v2.1.0 // indirect
	github.com/rivo/uniseg v0.2.0 // indirect
	github.com/spf13/afero v1.10.0 // indirect
	github.com/tdewolff/parse/v2 v2.6.8 // indirect
	github.com/valyala/bytebufferpool v1.0.0 // indirect
	github.com/valyala/fasthttp v1.49.0 // indirect
	github.com/valyala/tcplisten v1.0.0 // indirect
	golang.org/x/sys v0.12.0 // indirect
	golang.org/x/text v0.13.0 // indirect
	google.golang.org/protobuf v1.31.0 // indirect
)
